<?xml version="1.0" encoding="utf-8"?>
<!-- Generator: Adobe Illustrator 16.0.0, SVG Export Plug-In . SVG Version: 6.00 Build 0)  -->
<!DOCTYPE svg PUBLIC "-//W3C//DTD SVG 1.1//EN" "http://www.w3.org/Graphics/SVG/1.1/DTD/svg11.dtd">
<svg version="1.1" id="Layer_1" xmlns="http://www.w3.org/2000/svg" xmlns:xlink="http://www.w3.org/1999/xlink" x="0px" y="0px"
	 width="120px" height="69.498px" viewBox="0 0 120 69.498" enable-background="new 0 0 120 69.498" xml:space="preserve">
<polygon fill="#C8D42C" points="120,0 0,0 0,52 30,52 30,69.498 43.693,52 120,52 "/>
<g>
	<path fill="#ECF0F0" d="M81.064,18.994c0.788-0.166,2.034-0.291,3.3-0.291c1.805,0,2.967,0.312,3.839,1.018
		c0.727,0.539,1.162,1.369,1.162,2.469c0,1.35-0.893,2.532-2.366,3.071v0.042c1.328,0.332,2.885,1.432,2.885,3.507
		c0,1.204-0.477,2.116-1.183,2.802c-0.976,0.893-2.553,1.307-4.835,1.307c-1.245,0-2.2-0.082-2.802-0.166V18.994z M82.87,24.722
		h1.639c1.91,0,3.03-0.996,3.03-2.345c0-1.64-1.245-2.283-3.071-2.283c-0.83,0-1.308,0.062-1.598,0.125V24.722z M82.87,31.424
		c0.353,0.062,0.871,0.084,1.515,0.084c1.868,0,3.59-0.686,3.59-2.719c0-1.909-1.64-2.698-3.61-2.698H82.87V31.424z"/>
	<path fill="#ECF0F0" d="M92.312,18.994c0.913-0.188,2.221-0.291,3.466-0.291c1.93,0,3.175,0.354,4.047,1.142
		c0.705,0.622,1.1,1.577,1.1,2.656c0,1.847-1.162,3.071-2.636,3.569v0.062c1.079,0.373,1.723,1.369,2.055,2.822
		c0.456,1.95,0.788,3.299,1.079,3.839h-1.868c-0.228-0.395-0.539-1.598-0.934-3.341c-0.415-1.93-1.162-2.656-2.802-2.719h-1.701
		v6.06h-1.806V18.994z M94.118,25.365h1.847c1.93,0,3.154-1.059,3.154-2.656c0-1.806-1.308-2.595-3.217-2.615
		c-0.871,0-1.494,0.083-1.784,0.166V25.365z"/>
</g>
<g>
	<g>
		<ellipse fill="#A1AE39" cx="31.873" cy="19.342" rx="7.93" ry="7.979"/>
		<path fill="#A1AE39" d="M40.689,28h-4.073c-1.411,0-3.026,1.202-4.743,1.202c-1.718,0-3.333-1.202-4.742-1.202h-4.02
			C19.471,28,16,31.166,16,34.829v0.056C16,38.549,19.471,40,23.111,40h17.578C44.33,40,47,38.549,47,34.885v-0.056
			C47,31.166,44.33,28,40.689,28z"/>
	</g>
	<g>
		<path fill="#4A586A" d="M21.598,24h-1.96c0.896-1,1.47-2.178,1.47-3.484c0-2.432-1.961-4.513-4.38-4.513
			c-2.418,0-4.38,2.134-4.38,4.565c0,1.307,0.574,2.432,1.47,3.432h-1.927C9.879,24,8,26.833,8,28.857v0.031
			C8,30.91,9.879,32,11.891,32h5.164c1.079-2,3.41-4,6.057-4h1.732C24.688,26,23.471,24,21.598,24z"/>
		<path fill="#4A586A" d="M51.771,24h-1.96c0.896-1,1.47-2.178,1.47-3.484c0-2.432-1.961-4.513-4.38-4.513s-4.38,2.134-4.38,4.565
			c0,1.307,0.574,2.432,1.47,3.432h-1.927c-1.877,0-3.667,2-3.899,4h2.524c2.643,0,4.542,2,5.393,4h5.689
			C53.78,32,55,30.91,55,28.889v-0.031C55,26.833,53.78,24,51.771,24z"/>
	</g>
</g>
</svg>
