<?xml version="1.0" encoding="utf-8"?>
<!-- Generator: Adobe Illustrator 16.0.0, SVG Export Plug-In . SVG Version: 6.00 Build 0)  -->
<!DOCTYPE svg PUBLIC "-//W3C//DTD SVG 1.1//EN" "http://www.w3.org/Graphics/SVG/1.1/DTD/svg11.dtd">
<svg version="1.1" id="Layer_1" xmlns="http://www.w3.org/2000/svg" xmlns:xlink="http://www.w3.org/1999/xlink" x="0px" y="0px"
	 width="44px" height="42.92px" viewBox="0 0 44 42.92" enable-background="new 0 0 44 42.92" xml:space="preserve">
<g>
	<polygon opacity="0.6" fill="#70ACB0" points="7,4 7,40 33.861,40 44,30.194 44,4 	"/>
	<rect x="7" y="4" fill="#3A4656" width="37" height="9"/>
	<g>
		<rect x="14" fill="#70ACB0" width="3" height="8"/>
		<rect x="33" fill="#70ACB0" width="3" height="8"/>
	</g>
	<polygon opacity="0.6" fill="#70ACB0" points="34,40 43.667,30 34,30 	"/>
	<g>
		<g>
			<path fill="#E9EEEE" d="M11.522,21.139H9.324l-0.51,1.768h-1.18l2.129-6.535h1.359l2.129,6.535h-1.22L11.522,21.139z
				 M11.263,20.229l-0.229-0.801c-0.21-0.689-0.4-1.438-0.59-2.158h-0.04c-0.181,0.73-0.37,1.469-0.579,2.158l-0.23,0.801H11.263z"
				/>
			<path fill="#E9EEEE" d="M16.742,16.25c0.9,0,1.539,0.41,1.949,0.83l-0.639,0.719c-0.33-0.318-0.69-0.539-1.3-0.539
				c-1.159,0-1.938,0.9-1.938,2.369c0,1.488,0.689,2.389,1.998,2.389c0.37,0,0.73-0.1,0.939-0.291v-1.408h-1.239v-0.949h2.278v2.879
				c-0.449,0.439-1.219,0.779-2.118,0.779c-1.739,0-3.048-1.199-3.048-3.369C13.625,17.52,14.974,16.25,16.742,16.25z"/>
			<path fill="#E9EEEE" d="M19.904,19.609c0-2.109,1.18-3.359,2.879-3.359c1.709,0,2.888,1.25,2.888,3.359
				c0,2.117-1.179,3.418-2.888,3.418C21.084,23.027,19.904,21.727,19.904,19.609z M24.472,19.609c0-1.461-0.659-2.35-1.688-2.35
				s-1.689,0.889-1.689,2.35c0,1.469,0.66,2.408,1.689,2.408S24.472,21.078,24.472,19.609z"/>
			<path fill="#E9EEEE" d="M27.215,21.277c0.469,0.439,1.099,0.74,1.698,0.74c0.739,0,1.14-0.33,1.14-0.84
				c0-0.539-0.42-0.709-1.01-0.959l-0.899-0.391c-0.64-0.27-1.319-0.779-1.319-1.738c0-1.039,0.92-1.84,2.199-1.84
				c0.76,0,1.499,0.32,2.009,0.83l-0.59,0.74c-0.42-0.352-0.859-0.561-1.419-0.561c-0.62,0-1.029,0.289-1.029,0.77
				c0,0.51,0.5,0.699,1.039,0.92l0.89,0.369c0.77,0.33,1.319,0.82,1.319,1.77c0,1.059-0.88,1.939-2.35,1.939
				c-0.879,0-1.738-0.35-2.357-0.961L27.215,21.277z"/>
			<path fill="#E9EEEE" d="M33.554,17.35h-1.89v-0.979h4.938v0.979h-1.889v5.557h-1.159V17.35z"/>
			<path fill="#E9EEEE" d="M37.095,19.609c0-2.109,1.179-3.359,2.878-3.359c1.709,0,2.889,1.25,2.889,3.359
				c0,2.117-1.18,3.418-2.889,3.418C38.273,23.027,37.095,21.727,37.095,19.609z M41.662,19.609c0-1.461-0.66-2.35-1.689-2.35
				s-1.688,0.889-1.688,2.35c0,1.469,0.659,2.408,1.688,2.408S41.662,21.078,41.662,19.609z"/>
		</g>
	</g>
	<g>
		<g>
			<polygon fill="#EF4437" points="11,28 0,28 0,36 1,36 1,39.129 3.664,36 11,36 			"/>
		</g>
		<polygon fill="#EF4437" points="12,35 12,37 7,37 7,41 14.343,41 16,42.92 16,41 17,41 17,35 		"/>
	</g>
</g>
<g>
</g>
<g>
</g>
<g>
</g>
<g>
</g>
<g>
</g>
<g>
</g>
</svg>
