<?xml version="1.0" encoding="utf-8"?>
<!-- Generator: Adobe Illustrator 16.0.0, SVG Export Plug-In . SVG Version: 6.00 Build 0)  -->
<!DOCTYPE svg PUBLIC "-//W3C//DTD SVG 1.1//EN" "http://www.w3.org/Graphics/SVG/1.1/DTD/svg11.dtd">
<svg version="1.1" id="Layer_1" xmlns="http://www.w3.org/2000/svg" xmlns:xlink="http://www.w3.org/1999/xlink" x="0px" y="0px"
	 width="45.466px" height="40px" viewBox="0 0 45.466 40" enable-background="new 0 0 45.466 40" xml:space="preserve">
<g>
	<polygon opacity="0.6" fill="#70ACB0" points="8.466,4 8.466,40 35.327,40 45.466,30.194 45.466,4 	"/>
	<rect x="8.466" y="4" fill="#3A4656" width="37" height="9"/>
	<g>
		<rect x="15.466" fill="#70ACB0" width="3" height="8"/>
		<rect x="34.466" fill="#70ACB0" width="3" height="8"/>
	</g>
	<polygon opacity="0.6" fill="#70ACB0" points="35.466,40 45.133,30 35.466,30 	"/>
	<polyline fill="none" stroke="#EF4437" stroke-width="2" stroke-miterlimit="10" points="0.707,32.256 6.363,37.912 17.363,26.912 
			"/>
	<g>
		<g>
			<path fill="#E9EEEE" d="M12.296,21.819c0.26,0.479,0.619,0.689,1.02,0.689c0.609,0,0.92-0.329,0.92-1.259v-4.388h1.158v4.488
				c0,1.189-0.58,2.169-1.949,2.169c-0.908,0-1.539-0.38-1.947-1.109L12.296,21.819z"/>
			<path fill="#E9EEEE" d="M16.995,16.862h1.16v3.758c0,1.419,0.529,1.889,1.318,1.889c0.801,0,1.359-0.47,1.359-1.889v-3.758h1.109
				v3.668c0,2.149-0.949,2.989-2.469,2.989c-1.51,0-2.479-0.84-2.479-2.989V16.862z"/>
			<path fill="#E9EEEE" d="M23.575,16.862h1.189l2.039,3.678l0.67,1.39h0.041c-0.051-0.67-0.15-1.5-0.15-2.229v-2.839h1.109v6.537
				h-1.189l-2.039-3.678l-0.67-1.39h-0.039c0.049,0.69,0.148,1.479,0.148,2.209v2.858h-1.109V16.862z"/>
			<path fill="#E9EEEE" d="M30.136,16.862h1.16v2.629h2.648v-2.629h1.158v6.537h-1.158V20.5h-2.648v2.898h-1.16V16.862z"/>
			<path fill="#E9EEEE" d="M36.425,20.1c0-2.109,1.18-3.358,2.879-3.358c1.709,0,2.889,1.249,2.889,3.358
				c0,2.119-1.18,3.418-2.889,3.418C37.604,23.519,36.425,22.219,36.425,20.1z M40.993,20.1c0-1.459-0.66-2.349-1.689-2.349
				s-1.689,0.89-1.689,2.349c0,1.469,0.66,2.409,1.689,2.409S40.993,21.569,40.993,20.1z"/>
		</g>
	</g>
</g>
<g>
</g>
<g>
</g>
<g>
</g>
<g>
</g>
<g>
</g>
<g>
</g>
</svg>
